%YAML 1.1
%TAG !u! tag:unity3d.com,2011:
--- !u!1045 &1
EditorBuildSettings:
  m_ObjectHideFlags: 0
  serializedVersion: 2
  m_Scenes:
  - enabled: 0
    path: Assets/oregano.unity
    guid: e3be3e35b128c0747b526bbd729ba546
  - enabled: 1
    path: Assets/testScene.unity
    guid: 91b239d4a68468b4db1748a88db3635c
  - enabled: 0
    path: Assets/androidGPSsender.unity
    guid: f44c6e9ea25ba184291b7cddf25ee68a
